
CalculationMode = nt
Verbose = 40

MeshType = log1
MeshStartingPoint = 1e-5
MeshOutmostPoint = 100
MeshDerivMethod = cubic_spline

NumericalTests = derivatives
%TestFunctions
 "gaussian"          | gaussian    |  1.0 |  3.0 | 1.0
 "coulomb_potential" | inverse     | -1.0 |  0.0 | 1.0
 "h_density"         | exponential |  4.0 | -2.0 | 0.0
%
