
CalculationMode = ae
Verbose = 40

WaveEquation = dirac
NuclearCharge = 18

%Orbitals
"Ar"
%

%XCFunctionals
 lda_x_rel
 lda_c_vwn
%

ConvAbsDens = 1e-07

EigenSolverTolerance = 1e-7
ODEIntTolerance = 1e-14
